…
### Health Impact

Percentage of 10-year casualties by *raw* `EVTYPE` value:

```r
transmute(by_type_cas, EVTYPE, pct_casualties = formattable::percent(pct_casualties,1))
```

```
## # A tibble: 126 × 2
##               EVTYPE    pct_casualties
##                <chr> <S3: formattable>
## 1            TORNADO             42.4%
## 2     EXCESSIVE HEAT             10.1%
## 3          LIGHTNING              7.6%
## 4  THUNDERSTORM WIND              4.4%
## 5               HEAT              4.2%
## 6  HURRICANE/TYPHOON              3.9%
## 7          TSTM WIND              3.5%
## 8        FLASH FLOOD              3.0%
## 9           WILDFIRE              2.8%
## 10         HIGH WIND              1.7%
## # ... with 116 more rows
```

### Economic Impact

Percentage of 10-yr economic damage by *raw* `EVTYPE` value:

```r
# We start with the `by_type_cas` data, then re-arrange and add a cumulative percentage of damage
by_type_tot <- arrange(by_type_cas, desc(dollars)) %>% mutate(pctcumsum_doll = cumsum(pct_dollars))
transmute(by_type_tot, EVTYPE, pct_dollars = formattable::percent(pct_dollars,1))
```

```
## # A tibble: 126 × 2
##               EVTYPE       pct_dollars
##                <chr> <S3: formattable>
## 1              FLOOD             41.0%
## 2  HURRICANE/TYPHOON             21.5%
## 3        STORM SURGE             12.9%
## 4            TORNADO              5.6%
## 5        FLASH FLOOD              3.4%
## 6               HAIL              3.2%
## 7            DROUGHT              2.0%
## 8          HIGH WIND              1.6%
## 9           WILDFIRE              1.5%
## 10  STORM SURGE/TIDE              1.4%
## # ... with 116 more rows
```
…
